{
  "appId": "com.example.app",
  "appName": "bloodhero",
  "bundledWebRuntime": false,
  "npmClient": "npm",
  "webDir": "www",
  "cordova": {
    "preferences": {
      "ScrollEnabled": "false",
      "android-minSdkVersion": "19",
      "BackupWebStorage": "none",
      "SplashMaintainAspectRatio": "true",
      "FadeSplashScreenDuration": "300",
      "SplashShowOnlyFirstTime": "false",
      "SplashScreen": "screen",
      "SplashScreenDelay": "10000",
      "AutoHideSplashScreen": "false",
      "FadeSplashScreen": "true",
      "ShowSplashScreen": "true"
    }
  }
}
